Division,WeightClassKg,Place,Name,Team,BodyweightKg,Best3SquatKg,Best3BenchKg,Best3DeadliftKg,TotalKg,Equipment,Event,Sex,BirthDate
Boys,51.71,1,Evin Mauldin,Bogata Rivercrest,50.98,111.13,86.18,136.08,333.39,Unlimited,SBD,M,
Boys,51.71,2,Noah Pullen,Commerce,50.62,127.01,70.31,124.74,322.05,Unlimited,SBD,M,
Boys,51.71,3,Brennan Bryant,Diana New Diana,51.71,117.93,70.31,122.47,310.71,Unlimited,SBD,M,
Boys,51.71,4,Colt White,Frankston,50.26,104.33,54.43,129.27,288.03,Unlimited,SBD,M,
Boys,51.71,5,Connor Wolfe,Frankston,50.08,106.59,58.97,117.93,283.5,Unlimited,SBD,M,
Boys,55.79,1,Kelton White,Winona,55.52,133.81,74.84,142.88,351.53,Unlimited,SBD,M,
Boys,55.79,2,Matthew Swindle,Quitman,53.8,102.06,70.31,117.93,290.3,Unlimited,SBD,M,
Boys,55.79,3,Lane McQuire,Big Sandy,55.52,92.99,61.23,129.27,283.5,Unlimited,SBD,M,
Boys,55.79,DQ,Tyler Hiegert,Savoy,55.25,81.65,,,,Unlimited,SBD,M,
Boys,59.87,1,Yahir Morales,Winona,59.6,167.83,102.06,163.29,433.18,Unlimited,SBD,M,
Boys,59.87,2,Olandris Feggett,Tyler Chapel Hill,57.7,158.76,113.4,149.69,421.84,Unlimited,SBD,M,
Boys,59.87,3,Chris Ramirez,Commerce,59.33,158.76,74.84,170.1,403.7,Unlimited,SBD,M,
Boys,59.87,4,Cody Roberts,Redwater,57.97,158.76,90.72,142.88,392.36,Unlimited,SBD,M,
Boys,59.87,5,Jonah Rodriguez,Quitman,58.33,127.01,79.38,172.37,378.75,Unlimited,SBD,M,
Boys,59.87,6,Noah Mason,Quitman,59.87,102.06,74.84,151.95,328.85,Unlimited,SBD,M,
Boys,59.87,DQ,Chris Payne,Hawkins,59.6,154.22,88.45,,,Unlimited,SBD,M,
Boys,59.87,DQ,Mason Ritter,Diana New Diana,58.88,,,,,Unlimited,SBD,M,
Boys,67.13,1,Jordan Pullum,Winona,67.04,170.1,136.08,190.51,496.68,Unlimited,SBD,M,
Boys,67.13,2,Hayden Breding,Quitman,67.04,181.44,120.2,192.78,494.42,Unlimited,SBD,M,
Boys,67.13,3,Dallas Dezern,Commerce,66.68,183.7,108.86,176.9,469.47,Unlimited,SBD,M,
Boys,67.13,4,Isaac Roach,Bullard,66.86,174.63,117.93,176.9,469.47,Unlimited,SBD,M,
Boys,67.13,5,Colton Dodson,Diana New Diana,67.04,167.83,115.67,183.7,467.2,Unlimited,SBD,M,
Boys,67.13,6,Guest Thomas,Queen City,62.6,174.63,115.67,174.63,464.93,Unlimited,SBD,M,
Boys,67.13,7,Devin Nelson,Bullard,66.13,172.37,106.59,163.29,442.25,Unlimited,SBD,M,
Boys,67.13,8,Jared Hernandez,Winona,66.81,165.56,102.06,165.56,433.18,Unlimited,SBD,M,
Boys,67.13,9,Bradlee Gould,Frankston,67.13,170.1,102.06,158.76,430.91,Unlimited,SBD,M,
Boys,67.13,10,Gael Sanchez,Big Sandy,67.04,149.69,102.06,163.29,415.04,Unlimited,SBD,M,
Boys,67.13,11,Hunter Bailey,Quitman,65.59,149.69,99.79,161.03,410.5,Unlimited,SBD,M,
Boys,67.13,12,Christian Serrato,Frankston,65.5,147.42,90.72,161.03,399.16,Unlimited,SBD,M,
Boys,67.13,13,Jesus Marino,Bogata Rivercrest,65.95,138.35,90.72,156.49,385.55,Unlimited,SBD,M,
Boys,67.13,14,Evan Medina,Quitman,63.87,133.81,83.91,156.49,374.21,Unlimited,SBD,M,
Boys,67.13,15,Aiden Urquhart,Hawkins,66.13,102.06,83.91,111.13,297.1,Unlimited,SBD,M,
Boys,67.13,16,Gavin Frazier,Hawkins,66.95,92.99,68.04,127.01,288.03,Unlimited,SBD,M,
Boys,67.13,DQ,Jayden Rice,Winona,62.6,102.06,70.31,,,Unlimited,SBD,M,
Boys,67.13,DQ,Alan Geer,Savoy,65.14,,,,,Unlimited,SBD,M,
Boys,74.84,1,Lemuel Stinson,Tyler Chapel Hill,74.12,204.12,124.74,183.7,512.56,Unlimited,SBD,M,
Boys,74.84,2,Adam McClure,Redwater,74.3,170.1,145.15,183.7,498.95,Unlimited,SBD,M,
Boys,74.84,3,Preston Flores,Quitman,69.4,199.58,120.2,172.37,492.15,Unlimited,SBD,M,
Boys,74.84,4,Aubrey Penny,Frankston,73.48,183.7,115.67,183.7,483.08,Unlimited,SBD,M,
Boys,74.84,5,Jack Willis,Tyler Chapel Hill,73.66,161.03,106.59,174.63,442.25,Unlimited,SBD,M,
Boys,74.84,6,Logan Jewell,Big Sandy,73.12,158.76,92.99,172.37,424.11,Unlimited,SBD,M,
Boys,74.84,7,John Ankarstran,Cumby,73.48,163.29,92.99,167.83,424.11,Unlimited,SBD,M,
Boys,74.84,8,Jesse Barton,Winona,71.49,183.7,111.13,124.74,419.57,Unlimited,SBD,M,
Boys,74.84,9,Logan Spinhirne,Frankston,73.75,147.42,102.06,163.29,412.77,Unlimited,SBD,M,
Boys,74.84,10,Gabriel Dubois,Big Sandy,72.67,151.95,79.38,172.37,403.7,Unlimited,SBD,M,
Boys,74.84,11,Ricardo Barroso,Bogata Rivercrest,73.48,145.15,99.79,156.49,401.43,Unlimited,SBD,M,
Boys,74.84,12,Jose Bonilla,Bogata Rivercrest,67.68,136.08,102.06,149.69,387.82,Unlimited,SBD,M,
Boys,74.84,13,Zachery Murray,Big Sandy,73.48,140.61,77.11,156.49,374.21,Unlimited,SBD,M,
Boys,74.84,14,Zachary Fatula,Quitman,68.86,129.27,95.25,147.42,371.95,Unlimited,SBD,M,
Boys,74.84,15,Sumroot Do,Mineola,67.86,122.47,58.97,129.27,310.71,Unlimited,SBD,M,
Boys,82.1,1,Austin Blalock,Mineola,77.75,210.92,140.61,204.12,555.65,Unlimited,SBD,M,
Boys,82.1,2,Riley Plunlkett,Redwater,81.1,195.04,142.88,192.78,530.7,Unlimited,SBD,M,
Boys,82.1,3,Marcus Rinehart,Hawkins,79.2,192.78,136.08,183.7,512.56,Unlimited,SBD,M,
Boys,82.1,4,Jaxson Bledsoe,Redwater,79.65,204.12,120.2,188.24,512.56,Unlimited,SBD,M,
Boys,82.1,5,Jusber Nena,Cumby,81.65,174.63,142.88,192.78,510.29,Unlimited,SBD,M,
Boys,82.1,6,Vincent Bunyard,Frankston,79.11,192.78,120.2,192.78,505.76,Unlimited,SBD,M,
Boys,82.1,7,Kyle Foster,Commerce,77.2,199.58,113.4,174.63,487.61,Unlimited,SBD,M,
Boys,82.1,8,KyMani Graham,Commerce,75.39,188.24,104.33,179.17,471.74,Unlimited,SBD,M,
Boys,82.1,9,Joseph Scarbrough,Eustace,76.2,154.22,102.06,136.08,392.36,Unlimited,SBD,M,
Boys,82.1,10,Trevor Smith,Redwater,75.93,151.95,88.45,147.42,387.82,Unlimited,SBD,M,
Boys,82.1,DQ,Hugo Villareal,Eustace,81.74,,,,,Unlimited,SBD,M,
Boys,82.1,DQ,Luke Peterson,Savoy,81.65,,,,,Unlimited,SBD,M,
Boys,82.1,DQ,Caleb Donahoe,Winona,81.83,,,,,Unlimited,SBD,M,
Boys,82.1,DQ,Lurbryson Ross,Big Sandy,78.65,213.19,145.15,,,Unlimited,SBD,M,
Boys,89.81,1,Angel Lawson,Redwater,83.64,263.08,149.69,233.6,646.37,Unlimited,SBD,M,
Boys,89.81,2,Levi White,Frankston,86.09,272.16,145.15,201.85,619.15,Unlimited,SBD,M,
Boys,89.81,3,Troy Conley,Hawkins,86.73,215.46,154.22,213.19,582.87,Unlimited,SBD,M,
Boys,89.81,4,Andrea Grippauldo,Eustace,84.46,199.58,140.61,213.19,553.38,Unlimited,SBD,M,
Boys,89.81,5,Carter Harris,Tyler Chapel Hill,89.81,190.51,165.56,183.7,539.77,Unlimited,SBD,M,
Boys,89.81,6,Will Strudthoff,Redwater,83.64,204.12,136.08,197.31,537.51,Unlimited,SBD,M,
Boys,89.81,7,Logan Brown,Big Sandy,86.27,190.51,127.01,190.51,508.02,Unlimited,SBD,M,
Boys,89.81,8,Beau Hobbs,Mineola,88.18,188.24,124.74,176.9,489.88,Unlimited,SBD,M,
Boys,89.81,9,Deandre Bush,Tyler Chapel Hill,87,185.97,104.33,190.51,480.81,Unlimited,SBD,M,
Boys,89.81,10,Kingston Straznicky,Mineola,85.82,151.95,136.08,185.97,474,Unlimited,SBD,M,
Boys,89.81,11,Bryson France,Hawkins,84.1,161.03,127.01,181.44,469.47,Unlimited,SBD,M,
Boys,89.81,12,Eli Dood,Bogata Rivercrest,88.63,165.56,117.93,174.63,458.13,Unlimited,SBD,M,
Boys,89.81,13,Levi Ferguson,Quitman,88.36,154.22,95.25,165.56,415.04,Unlimited,SBD,M,
Boys,89.81,14,Sonny Pierce,Cumby,88.36,156.49,88.45,161.03,405.97,Unlimited,SBD,M,
Boys,89.81,DQ,Kandon Sheridan,Diana New Diana,88.72,188.24,,,,Unlimited,SBD,M,
Boys,99.79,1,Markease Aubrey,Commerce,95.44,233.6,151.95,229.06,614.62,Unlimited,SBD,M,
Boys,99.79,2,Jason Choern,Commerce,97.16,242.67,147.42,215.46,605.55,Unlimited,SBD,M,
Boys,99.79,3,Sebastian Rodriguez,Diana New Diana,98.07,231.33,154.22,210.92,596.47,Unlimited,SBD,M,
Boys,99.79,4,Alex Rodriguez,Tyler Chapel Hill,96.25,224.53,154.22,190.51,569.26,Unlimited,SBD,M,
Boys,99.79,5,Bentley Bell,Commerce,94.17,213.19,131.54,201.85,546.58,Unlimited,SBD,M,
Boys,99.79,6,Miguel Acatitlan,Hawkins,95.71,219.99,122.47,183.7,526.17,Unlimited,SBD,M,
Boys,99.79,7,Landen Hartman,Big Sandy,97.79,181.44,127.01,192.78,501.22,Unlimited,SBD,M,
Boys,99.79,8,Cameron Kelley,Mineola,92.08,195.04,108.86,190.51,494.42,Unlimited,SBD,M,
Boys,99.79,9,Jackson Daniels,Tyler All Saints Episcopal School,93.89,170.1,106.59,188.24,464.93,Unlimited,SBD,M,
Boys,99.79,10,Carson Henkle,Big Sandy,94.17,192.78,106.59,165.56,464.93,Unlimited,SBD,M,
Boys,99.79,11,Tony Hernandez,Big Sandy,94.08,176.9,104.33,176.9,458.13,Unlimited,SBD,M,
Boys,99.79,12,Dante Shears,Bogata Rivercrest,99.43,192.78,122.47,142.88,458.13,Unlimited,SBD,M,
Boys,99.79,13,Jasiah Kennedy,Winona,96.71,124.74,81.65,142.88,349.27,Unlimited,SBD,M,
Boys,99.79,DQ,Ty Akin,Diana New Diana,99.79,,,,,Unlimited,SBD,M,
Boys,99.79,DQ,Robert Goode,Cumby,98.97,165.56,,,,Unlimited,SBD,M,
Boys,109.77,1,Caiden Taylor,Bullard,100.79,240.4,167.83,213.19,621.42,Unlimited,SBD,M,
Boys,109.77,2,Cade Papez,Quitman,100.79,229.06,158.76,231.33,619.15,Unlimited,SBD,M,
Boys,109.77,3,Greg Mayfield,Tyler Chapel Hill,106.5,226.8,158.76,229.06,614.62,Unlimited,SBD,M,
Boys,109.77,4,Chance Cranford,Commerce,105.6,233.6,161.03,208.65,603.28,Unlimited,SBD,M,
Boys,109.77,5,Kentrell Perry,Jefferson,106.68,195.04,165.56,204.12,564.72,Unlimited,SBD,M,
Boys,109.77,6,Eddrick Irving,Mineola,102.06,224.53,147.42,181.44,553.38,Unlimited,SBD,M,
Boys,109.77,7,Trevor Sprinkle,Eustace,109.5,226.8,142.88,181.44,551.11,Unlimited,SBD,M,
Boys,109.77,8,Hunter Martin,Tyler All Saints Episcopal School,108.23,172.37,138.35,222.26,532.97,Unlimited,SBD,M,
Boys,109.77,9,Payton Hernandez,Tyler All Saints Episcopal School,109.77,165.56,120.2,201.85,487.61,Unlimited,SBD,M,
Boys,109.77,10,Jermond Jones,Winona,108.95,172.37,106.59,158.76,437.72,Unlimited,SBD,M,
Boys,124.74,1,Javaryon Brumsey,Mineola,122.47,299.37,158.76,235.87,694,Unlimited,SBD,M,
Boys,124.74,2,Joshua Jeffery,Diana New Diana,114.31,254.01,142.88,224.53,621.42,Unlimited,SBD,M,
Boys,124.74,3,Amari McCuin,Tyler Chapel Hill,115.12,226.8,163.29,210.92,601.01,Unlimited,SBD,M,
Boys,124.74,4,Joshua Riddle,Commerce,117.84,235.87,158.76,192.78,587.4,Unlimited,SBD,M,
Boys,124.74,5,Raylyn Hawkins,Big Sandy,122.2,206.38,111.13,210.92,528.44,Unlimited,SBD,M,
Boys,124.74,6,Luke Ferguson,Quitman,113.85,204.12,131.54,183.7,519.36,Unlimited,SBD,M,
Boys,124.74,7,Joseph Villareal,Winona,120.47,183.7,104.33,190.51,478.54,Unlimited,SBD,M,
Boys,124.74,8,Mason Kennedy,Winona,124.01,61.23,170.1,197.31,428.64,Unlimited,SBD,M,
Boys,124.74,DQ,Kamon Branom,Hawkins,110.22,165.56,106.59,,,Unlimited,SBD,M,
Boys,124.74,DQ,Elijah Zavala,Mineola,120.02,229.06,129.27,,,Unlimited,SBD,M,
Boys,139.71,1,Brennon Ference,Big Sandy,125.01,249.48,158.76,281.23,689.46,Unlimited,SBD,M,
Boys,139.71,2,Juan Cervantes,Mineola,134.44,247.21,181.44,231.33,659.98,Unlimited,SBD,M,
Boys,139.71,3,James York,Eustace,128.19,249.48,142.88,224.53,616.89,Unlimited,SBD,M,
Boys,139.71,4,Chilo Applegate,Mineola,128.64,231.33,142.88,213.19,587.4,Unlimited,SBD,M,
Boys,139.71,5,Grayson DuPont,Mineola,138.44,217.72,145.15,201.85,564.72,Unlimited,SBD,M,
Boys,139.71,6,Spenser Johnson,Bullard,135.08,199.58,151.95,197.31,548.85,Unlimited,SBD,M,
Boys,139.71,7,McKade Rogers,Tyler Chapel Hill,133.81,181.44,142.88,188.24,512.56,Unlimited,SBD,M,
Boys,139.71+,1,Julien Griffin,Hawkins,166.47,249.48,165.56,235.87,650.91,Unlimited,SBD,M,
Boys,139.71+,2,Braxton Cheney,Bogata Rivercrest,144.79,215.46,158.76,206.38,580.6,Unlimited,SBD,M,
Boys,139.71+,3,Connor Beck,Quitman,149.96,176.9,111.13,188.24,476.27,Unlimited,SBD,M,
Boys,139.71+,4,Salano Nicholas,Mineola,146.87,181.44,104.33,176.9,462.66,Unlimited,SBD,M,
Boys,,NS,Timothy Ryals,Frankston,,,,,,Unlimited,SBD,M,
