Division,WeightClassKg,Place,Name,Team,BodyweightKg,Best3SquatKg,Best3BenchKg,Best3DeadliftKg,TotalKg,Equipment,Event,Sex
Boys,51.71,1,Trey Arras,Texarkana Liberty-Eylau,51.62,154.22,92.99,161.03,408.23,Single-ply,SBD,M
Boys,51.71,2,John Magbanua,Texarkana Texas,51.44,136.08,61.23,131.54,328.85,Single-ply,SBD,M
Boys,51.71,3,Jared Burgin,Texarkana Pleasant Grove,50.44,102.06,45.36,99.79,247.21,Single-ply,SBD,M
Boys,51.71,4,Jordan Maxwell,Queen City,50.26,92.99,40.82,99.79,233.6,Single-ply,SBD,M
Boys,55.79,1,James Fisher,Texarkana Texas,55.07,163.29,83.91,154.22,401.43,Single-ply,SBD,M
Boys,55.79,2,Bradley Norton,Queen City,54.7,142.88,65.77,142.88,351.53,Single-ply,SBD,M
Boys,55.79,3,Cameron Helpenstill,Big Sandy Harmony,54.34,113.4,58.97,122.47,294.84,Single-ply,SBD,M
Boys,59.87,1,David Martin-Flores,Texarkana Pleasant Grove,59.69,174.63,117.93,206.38,498.95,Single-ply,SBD,M
Boys,59.87,2,Ryan Fincher,Queen City,59.33,172.37,92.99,172.37,437.72,Single-ply,SBD,M
Boys,59.87,3,Ryan Laborde,Winnsboro,59.15,170.1,86.18,163.29,419.57,Single-ply,SBD,M
Boys,59.87,4,Laravione Finley,Texarkana Texas,59.42,167.83,79.38,172.37,419.57,Single-ply,SBD,M
Boys,59.87,5,Jackson Kennedy,Texarkana Pleasant Grove,56.52,145.15,97.52,154.22,396.89,Single-ply,SBD,M
Boys,67.13,1,Ethan Wagner,Texarkana Pleasant Grove,63.23,172.37,95.25,181.44,449.06,Single-ply,SBD,M
Boys,67.13,2,Trystann Burt,Queen City,65.05,149.69,111.13,188.24,449.06,Single-ply,SBD,M
Boys,67.13,3,Drew McNeal,Big Sandy Harmony,66.5,149.69,97.52,147.42,394.63,Single-ply,SBD,M
Boys,67.13,4,LaVondrick Vaughn,Redwater,67.13,149.69,92.99,149.69,392.36,Single-ply,SBD,M
Boys,67.13,5,Jacob Barbour,Texarkana Pleasant Grove,66.68,120.2,81.65,149.69,351.53,Single-ply,SBD,M
Boys,67.13,6,Carl Traylor,De Kalb,65.59,127.01,83.91,131.54,342.46,Single-ply,SBD,M
Boys,67.13,7,Shamarius Gibson,De Kalb,64.86,127.01,70.31,142.88,340.19,Single-ply,SBD,M
Boys,67.13,8,Clayton Brookes,New Boston,67.13,113.4,52.16,147.42,312.98,Single-ply,SBD,M
Boys,67.13,9,Colton Cayton,Queen City,60.87,104.33,68.04,113.4,285.76,Single-ply,SBD,M
Boys,74.84,1,Jonathan Spurlin,Winnsboro,73.39,199.58,127.01,204.12,530.7,Single-ply,SBD,M
Boys,74.84,2,John Hays,Texarkana Texas,74.3,183.7,117.93,188.24,489.88,Single-ply,SBD,M
Boys,74.84,3,Tracy Craig,Queen City,73.66,190.51,113.4,183.7,487.61,Single-ply,SBD,M
Boys,74.84,4,Caden Clifford,Gladewater Sabine,68.86,181.44,92.99,174.63,449.06,Single-ply,SBD,M
Boys,74.84,5,Nick Carter,Redwater,71.35,163.29,92.99,165.56,421.84,Single-ply,SBD,M
Boys,74.84,6,DJ Click,Big Sandy Harmony,74.57,161.03,86.18,163.29,410.5,Single-ply,SBD,M
Boys,74.84,7,Zac Tollett,Big Sandy Harmony,71.3,147.42,74.84,156.49,378.75,Single-ply,SBD,M
Boys,74.84,8,Elliot Almond,De Kalb,73.03,151.95,83.91,142.88,378.75,Single-ply,SBD,M
Boys,74.84,9,Caden Swink,Big Sandy Harmony,70.58,122.47,92.99,136.08,351.53,Single-ply,SBD,M
Boys,82.1,1,Zanoah Arnold,Texarkana Liberty-Eylau,80.83,249.48,145.15,272.16,666.78,Single-ply,SBD,M
Boys,82.1,2,Manny Urbina,De Kalb,80.92,213.19,127.01,192.78,532.97,Single-ply,SBD,M
Boys,82.1,3,Mitchell Attaway,Winnsboro,80.47,226.8,108.86,188.24,523.9,Single-ply,SBD,M
Boys,82.1,4,Jeffery Sapp,Texarkana Texas,81.83,201.85,111.13,204.12,517.1,Single-ply,SBD,M
Boys,82.1,5,Erik Arriaga,Big Sandy Harmony,81.19,176.9,104.33,199.58,480.81,Single-ply,SBD,M
Boys,82.1,6,Jesse Ortiz,Winnsboro,80.01,167.83,97.52,167.83,433.18,Single-ply,SBD,M
Boys,82.1,7,Jordan Helms,Redwater,76.66,165.56,102.06,163.29,430.91,Single-ply,SBD,M
Boys,82.1,8,Noah Bates,Texarkana Pleasant Grove,79.56,170.1,95.25,163.29,428.64,Single-ply,SBD,M
Boys,82.1,9,Stancio Battles,New Boston,82.1,151.95,86.18,165.56,403.7,Single-ply,SBD,M
Boys,82.1,10,Brent Satterfield,Redwater,81.65,131.54,86.18,142.88,360.61,Single-ply,SBD,M
Boys,82.1,11,Juan Castillo,Big Sandy Harmony,76.84,131.54,79.38,147.42,358.34,Single-ply,SBD,M
Boys,82.1,12,Bradley Dugger,Big Sandy Harmony,79.74,136.08,83.91,131.54,351.53,Single-ply,SBD,M
Boys,82.1,13,Kris Tong,New Boston,78.47,102.06,56.7,142.88,301.64,Single-ply,SBD,M
Boys,82.1,14,Chris Irizarry,Redwater,78.93,192.78,97.52,,290.3,Single-ply,SB,M
Boys,89.81,1,Grant Stansberry,Gladewater Sabine,87.82,238.14,136.08,226.8,601.01,Single-ply,SBD,M
Boys,89.81,2,Colton Finney,Redwater,87.54,235.87,124.74,217.72,578.33,Single-ply,SBD,M
Boys,89.81,3,Jonathan Allen,Texarkana Texas,88.9,233.6,115.67,219.99,569.26,Single-ply,SBD,M
Boys,89.81,4,Chris Arnold #1,Texarkana Texas,89.45,208.65,115.67,238.14,562.45,Single-ply,SBD,M
Boys,89.81,5,Jarvis Arnold,De Kalb,89.45,197.31,129.27,192.78,519.36,Single-ply,SBD,M
Boys,89.81,6,Ryan Cannon,De Kalb,85.55,181.44,108.86,163.29,453.59,Single-ply,SBD,M
Boys,89.81,7,Dylan Roberts,Redwater,86.18,181.44,92.99,179.17,453.59,Single-ply,SBD,M
Boys,89.81,8,Angel Aguillon,Big Sandy Harmony,88.9,170.1,97.52,165.56,433.18,Single-ply,SBD,M
Boys,89.81,9,Dalton Howell,Queen City,87.18,163.29,95.25,172.37,430.91,Single-ply,SBD,M
Boys,89.81,10,Kody Nichols,Queen City,88.99,142.88,90.72,165.56,399.16,Single-ply,SBD,M
Boys,99.79,1,Landon Shelton,Texarkana Pleasant Grove,95.62,229.06,142.88,231.33,603.28,Single-ply,SBD,M
Boys,99.79,2,Richard Mainor,Texarkana Liberty-Eylau,95.8,219.99,147.42,235.87,603.28,Single-ply,SBD,M
Boys,99.79,3,Michael Lindley,Texarkana Liberty-Eylau,92.71,226.8,127.01,226.8,580.6,Single-ply,SBD,M
Boys,99.79,4,Hunter Harrison,Redwater,96.25,229.06,133.81,215.46,578.33,Single-ply,SBD,M
Boys,99.79,5,Austin Jones,Redwater,93.89,226.8,120.2,217.72,564.72,Single-ply,SBD,M
Boys,99.79,6,Dejontae Harper,Texarkana Texas,91.99,231.33,115.67,208.65,555.65,Single-ply,SBD,M
Boys,99.79,7,Da'shawn Harris,Texarkana Texas,99.79,229.06,117.93,208.65,555.65,Single-ply,SBD,M
Boys,99.79,8,Darrell Houff,Texarkana Liberty-Eylau,91.99,181.44,156.49,215.46,553.38,Single-ply,SBD,M
Boys,99.79,9,Rylie Riebesell,Texarkana Pleasant Grove,97.25,215.46,124.74,204.12,544.31,Single-ply,SBD,M
Boys,99.79,10,Kentavius Williams,De Kalb,92.17,222.26,120.2,181.44,523.9,Single-ply,SBD,M
Boys,99.79,11,Cole Crowder,Redwater,98.61,210.92,108.86,204.12,523.9,Single-ply,SBD,M
Boys,99.79,12,Jesus Maldonado,Big Sandy Harmony,98.97,226.8,99.79,190.51,517.1,Single-ply,SBD,M
Boys,99.79,13,Nathaniel Simmons,New Boston,90.63,208.65,111.13,181.44,501.22,Single-ply,SBD,M
Boys,99.79,14,Dylan Savage,Queen City,99.34,183.7,90.72,192.78,467.2,Single-ply,SBD,M
Boys,99.79,15,Garrison McKinnie,De Kalb,99.52,172.37,83.91,151.95,408.23,Single-ply,SBD,M
Boys,99.79,16,Ty Pilcher,Big Sandy Harmony,94.35,161.03,92.99,151.95,405.97,Single-ply,SBD,M
Boys,99.79,17,David Kizer,De Kalb,90.99,172.37,70.31,158.76,401.43,Single-ply,SBD,M
Boys,109.77,1,Curtis Griggs,Queen City,109.13,219.99,138.35,215.46,573.79,Single-ply,SBD,M
Boys,109.77,2,De'Waven Rowden,Texarkana Liberty-Eylau,106.87,210.92,115.67,210.92,537.51,Single-ply,SBD,M
Boys,109.77,3,Lawernce Lopez,De Kalb,105.32,195.04,127.01,213.19,535.24,Single-ply,SBD,M
Boys,109.77,4,Cheyenne Lockhart,Texarkana Liberty-Eylau,107.5,197.31,106.59,222.26,526.17,Single-ply,SBD,M
Boys,109.77,5,Angel Meija,Texarkana Pleasant Grove,105.32,199.58,124.74,195.04,519.36,Single-ply,SBD,M
Boys,109.77,6,Ryan Forbes,Texarkana Pleasant Grove,106.32,170.1,102.06,188.24,460.4,Single-ply,SBD,M
Boys,109.77,7,Sanjay Pokhre,Texarkana Pleasant Grove,101.97,181.44,90.72,165.56,437.72,Single-ply,SBD,M
Boys,109.77,DQ,Tremaine Brown,Texarkana Liberty-Eylau,99.88,,,,,Single-ply,SBD,M
Boys,124.74,1,James Tarantino,Texarkana Texas,114.03,226.8,124.74,222.26,573.79,Single-ply,SBD,M
Boys,124.74,2,Deonte Brown,De Kalb,118.84,197.31,129.27,170.1,496.68,Single-ply,SBD,M
Boys,124.74,3,Tai Tuatagaloa,New Boston,122.38,185.97,108.86,165.56,460.4,Single-ply,SBD,M
Boys,124.74,4,Connor Green,Texarkana Liberty-Eylau,109.95,170.1,102.06,181.44,453.59,Single-ply,SBD,M
Boys,124.74,5,Dakota Guin,Big Sandy Harmony,116.57,163.29,83.91,151.95,399.16,Single-ply,SBD,M
Boys,124.74+,1,Dylan Raley,Texarkana Texas,136.8,242.67,140.61,260.82,644.1,Single-ply,SBD,M
Boys,124.74+,2,Franklin Smith,Texarkana Liberty-Eylau,125.01,256.28,129.27,256.28,641.83,Single-ply,SBD,M
Boys,124.74+,3,Eric Nard,Texarkana Texas,144.33,272.16,124.74,208.65,605.55,Single-ply,SBD,M
Boys,124.74+,4,Shamaal Parrish,Texarkana Liberty-Eylau,156.76,206.38,115.67,188.24,510.29,Single-ply,SBD,M
Boys,124.74+,5,Victor Sanchez,New Boston,131.63,197.31,104.33,183.7,485.34,Single-ply,SBD,M
Boys,124.74+,6,Hayden Branson,New Boston,125.19,176.9,90.72,163.29,430.91,Single-ply,SBD,M
Boys,124.74+,7,Riley Saunders,Redwater,132,167.83,95.25,161.03,424.11,Single-ply,SBD,M
Boys,124.74+,8,Jacob Thompson #5,New Boston,126.01,161.03,81.65,167.83,410.5,Single-ply,SBD,M
Boys,,NS,David Price,Queen City,,,,,,Single-ply,SBD,M
Boys,,NS,Lucas Pinnell,Winnsboro,,,,,,Single-ply,SBD,M
