Division,WeightClassKg,Place,Name,Team,BodyweightKg,Best3SquatKg,Best3BenchKg,Best3DeadliftKg,TotalKg,Equipment,Event,Sex,BirthDate
Girls,44.23,1,Mylei Donahue,Kyle Lehman,43.73,122.47,52.16,115.67,290.3,Unlimited,SBD,F,
Girls,44.23,2,Yaretzy Morales,Joshua,44,104.33,54.43,108.86,267.62,Unlimited,SBD,F,
Girls,44.23,3,Catalina Esquivel,Lake Belton,43.82,86.18,47.63,97.52,231.33,Unlimited,SBD,F,
Girls,44.23,4,Jessica Mendoza,Pflugerville Weiss,43.82,90.72,49.9,88.45,229.06,Unlimited,SBD,F,
Girls,44.23,5,Ariza Guerrero,Kyle Lehman,43.27,92.99,34.02,95.25,222.26,Unlimited,SBD,F,
Girls,44.23,6,Kaitlyn Maus,Lake Belton,43.36,79.38,40.82,92.99,213.19,Unlimited,SBD,F,
Girls,44.23,7,Mia Cisneros,Cleburne,44.18,70.31,38.56,92.99,201.85,Unlimited,SBD,F,
Girls,44.23,8,Kailee Welsh,Georgetown,42.37,77.11,36.29,77.11,190.51,Unlimited,SBD,F,
Girls,44.23,9,Sarah Rogers,Lake Belton,43.36,45.36,20.41,52.16,117.93,Unlimited,SBD,F,
Girls,44.23,DQ,Emmilia Rodriguez,Cleburne,43.54,61.23,,,,Unlimited,SBD,F,
Girls,47.85,1,Alondra Rosario-Cartagena,Killeen Chaparral,45.72,111.13,68.04,117.93,297.1,Unlimited,SBD,F,
Girls,47.85,2,Beth Stracener,College Station,46.81,127.01,61.23,108.86,297.1,Unlimited,SBD,F,
Girls,47.85,3,Macie Solis,Lake Belton,46.9,104.33,56.7,108.86,269.89,Unlimited,SBD,F,
Girls,47.85,4,Emma Scholz,Lake Belton,46.81,95.25,61.23,92.99,249.48,Unlimited,SBD,F,
Girls,47.85,5,Guadalupe Anguiano,Bastrop Cedar Creek,47.08,95.25,49.9,95.25,240.4,Unlimited,SBD,F,
Girls,47.85,6,Isabella Paris,Joshua,46.9,74.84,43.09,106.59,224.53,Unlimited,SBD,F,
Girls,47.85,7,Ashley Marron-Rodriguez,Austin Anderson,47.81,79.38,40.82,104.33,224.53,Unlimited,SBD,F,
Girls,47.85,8,Jazmynn Torres,Granbury,46.72,83.91,40.82,95.25,219.99,Unlimited,SBD,F,
Girls,47.85,9,Mj Geister,Kyle Lehman,47.36,81.65,45.36,92.99,219.99,Unlimited,SBD,F,
Girls,47.85,10,Genesis Ruiz,Austin Anderson,46.18,86.18,40.82,79.38,206.38,Unlimited,SBD,F,
Girls,47.85,DQ,Penelope Pittman,Burleson Centennial,47.08,74.84,,,,Unlimited,SBD,F,
Girls,47.85,DQ,Taylor Love,Lake Belton,45.45,,,,,Unlimited,SBD,F,
Girls,47.85,DQ,Camryn Mikulas,Lake Belton,47.63,,,,,Unlimited,SBD,F,
Girls,51.94,1,Jazmyne Brown,Joshua,51.07,138.35,52.16,124.74,315.25,Unlimited,SBD,F,
Girls,51.94,2,Kensey Kalstad,Pflugerville Hendrickson,50.62,111.13,72.57,122.47,306.17,Unlimited,SBD,F,
Girls,51.94,3,Scarlytt Cotham,Lake Belton,50.62,111.13,68.04,127.01,306.17,Unlimited,SBD,F,
Girls,51.94,4,Shekayla Munoz,Lake Belton,51.07,108.86,56.7,111.13,276.69,Unlimited,SBD,F,
Girls,51.94,5,Moriah Rydberg,Lake Belton,50.17,108.86,56.7,102.06,267.62,Unlimited,SBD,F,
Girls,51.94,6,Emma Elizondo,Pflugerville Hendrickson,50.53,106.59,47.63,111.13,265.35,Unlimited,SBD,F,
Girls,51.94,7,Cori Hancock,College Station,50.62,97.52,47.63,117.93,263.08,Unlimited,SBD,F,
Girls,51.94,8,Marie Donahue,Kyle Lehman,51.35,92.99,45.36,115.67,254.01,Unlimited,SBD,F,
Girls,51.94,9,Zoe Herrera-Rodriguez,Buda Hays,48.9,90.72,47.63,102.06,240.4,Unlimited,SBD,F,
Girls,51.94,DQ,Alexa Stilson,Burleson Centennial,51.07,115.67,,,,Unlimited,SBD,F,
Girls,51.94,DQ,Addisyn Kelley,Burleson Centennial,50.71,,,,,Unlimited,SBD,F,
Girls,51.94,DQ,Valencia Cavazos,Killeen Chaparral,49.9,,,,,Unlimited,SBD,F,
Girls,56.02,1,Avery Wiltzius,Killeen Chaparral,54.25,127.01,81.65,136.08,344.73,Unlimited,SBD,F,
Girls,56.02,2,Juliet Wallace,Burleson Centennial,55.43,131.54,79.38,117.93,328.85,Unlimited,SBD,F,
Girls,56.02,3,Mira Dietz,Buda Hays,54.25,124.74,56.7,142.88,324.32,Unlimited,SBD,F,
Girls,56.02,4,Abby Pennington,Burleson Centennial,54.7,111.13,72.57,111.13,294.84,Unlimited,SBD,F,
Girls,56.02,5,Cierra Taylor,Joshua,54.61,122.47,54.43,104.33,281.23,Unlimited,SBD,F,
Girls,56.02,6,Breeleigh Borden,Burleson Centennial,55.97,104.33,56.7,120.2,281.23,Unlimited,SBD,F,
Girls,56.02,7,Harper Holt,Lake Belton,54.52,92.99,54.43,131.54,278.96,Unlimited,SBD,F,
Girls,56.02,8,Isabella Grijalva,Joshua,53.61,104.33,56.7,108.86,269.89,Unlimited,SBD,F,
Girls,56.02,9,Maddie Bagtas,Pflugerville Hendrickson,54.88,92.99,61.23,92.99,247.21,Unlimited,SBD,F,
Girls,56.02,10,Preslee Carnes,Granbury,54.98,90.72,56.7,99.79,247.21,Unlimited,SBD,F,
Girls,56.02,11,Chloe Ruiz,Buda Hays,52.8,92.99,45.36,102.06,240.4,Unlimited,SBD,F,
Girls,56.02,12,Madalynn Riggs,Burleson Centennial,53.98,86.18,56.7,90.72,233.6,Unlimited,SBD,F,
Girls,56.02,DQ,Ayah Carrias,College Station A&M Cons,51.98,,,,,Unlimited,SBD,F,
Girls,56.02,DQ,Aireanna Jones,Killeen Chaparral,55.34,129.27,,,,Unlimited,SBD,F,
Girls,60.1,1,Madeline Lowe,Burleson Centennial,59.06,161.03,108.86,142.88,412.77,Unlimited,SBD,F,
Girls,60.1,2,Danica Linkowski,Burleson Centennial,59.24,163.29,81.65,145.15,390.09,Unlimited,SBD,F,
Girls,60.1,3,Alexia Smith,Buda Hays,57.61,147.42,68.04,149.69,365.14,Unlimited,SBD,F,
Girls,60.1,4,Hailey Ruiz,Buda Hays,58.33,149.69,63.5,142.88,356.07,Unlimited,SBD,F,
Girls,60.1,5,Alexis Conaway,Burleson Centennial,59.06,133.81,88.45,129.27,351.53,Unlimited,SBD,F,
Girls,60.1,6,Alesha Duncan,Pflugerville Hendrickson,59.51,142.88,79.38,115.67,337.93,Unlimited,SBD,F,
Girls,60.1,7,Emyle Love,Lake Belton,59.51,113.4,65.77,124.74,303.91,Unlimited,SBD,F,
Girls,60.1,8,Olivia Sedlacek,Burleson Centennial,58.6,111.13,77.11,102.06,290.3,Unlimited,SBD,F,
Girls,60.1,9,Esther Gutierrez,Kyle Lehman,59.33,127.01,49.9,113.4,290.3,Unlimited,SBD,F,
Girls,60.1,DQ,Gianellie Hernandez,Killeen Chaparral,59.87,,,,,Unlimited,SBD,F,
Girls,60.1,DQ,Ysabella Janak,Buda Hays,59.51,140.61,,,,Unlimited,SBD,F,
Girls,60.1,DQ,Kara Hopcus,College Station A&M Cons,59.51,,,,,Unlimited,SBD,F,
Girls,67.36,1,Ryan Doggett,Pflugerville Hendrickson,65.5,192.78,142.88,149.69,485.34,Unlimited,SBD,F,
Girls,67.36,2,Aaliyah Respress,Kyle Lehman,66.59,195.04,95.25,165.56,455.86,Unlimited,SBD,F,
Girls,67.36,3,Leila Gomez,Kyle Lehman,66.59,195.04,90.72,161.03,446.79,Unlimited,SBD,F,
Girls,67.36,4,Jocelyne Jaimes,Kyle Lehman,65.23,183.7,81.65,147.42,412.77,Unlimited,SBD,F,
Girls,67.36,5,Giovanna Castellani,College Station,65.77,158.76,92.99,151.95,403.7,Unlimited,SBD,F,
Girls,67.36,6,Nadia Mustafic,Burleson Centennial,65.86,183.7,77.11,142.88,403.7,Unlimited,SBD,F,
Girls,67.36,7,Sarahi Xic Ajpacaja,College Station A&M Cons,64.95,147.42,90.72,140.61,378.75,Unlimited,SBD,F,
Girls,67.36,8,Kambree Burns,College Station A&M Cons,64.05,149.69,79.38,133.81,362.87,Unlimited,SBD,F,
Girls,67.36,9,Colleen Gulde,College Station,66.32,142.88,83.91,136.08,362.87,Unlimited,SBD,F,
Girls,67.36,10,Tatum Vaughn,Lake Belton,65.5,142.88,72.57,129.27,344.73,Unlimited,SBD,F,
Girls,67.36,11,Camden Lechler,College Station,65.59,142.88,77.11,124.74,344.73,Unlimited,SBD,F,
Girls,67.36,12,Abby Rydberg,Lake Belton,66.95,108.86,74.84,136.08,319.78,Unlimited,SBD,F,
Girls,67.36,DQ,Kaisley Forster,Lake Belton,67.13,,,,,Unlimited,SBD,F,
Girls,75.07,1,Jessie Kolodziejczyk,College Station,70.31,213.19,113.4,145.15,471.74,Unlimited,SBD,F,
Girls,75.07,2,Holley Matthews,Pflugerville Hendrickson,68.49,172.37,83.91,185.97,442.25,Unlimited,SBD,F,
Girls,75.07,3,Kyia Miller,Kyle Lehman,69.31,188.24,99.79,154.22,442.25,Unlimited,SBD,F,
Girls,75.07,4,Rai Pack,College Station,69.94,176.9,111.13,124.74,412.77,Unlimited,SBD,F,
Girls,75.07,5,Isel Rodriguez,Pflugerville Weiss,73.03,149.69,83.91,145.15,378.75,Unlimited,SBD,F,
Girls,75.07,6,Maddie Caldwell,Burleson Centennial,73.75,140.61,83.91,131.54,356.07,Unlimited,SBD,F,
Girls,75.07,7,Francy Zing,College Station A&M Cons,70.94,147.42,74.84,124.74,347,Unlimited,SBD,F,
Girls,75.07,8,Kaylynn Morton,College Station,73.12,136.08,72.57,136.08,344.73,Unlimited,SBD,F,
Girls,75.07,9,Lauren Schmitt,College Station,72.94,136.08,65.77,136.08,337.93,Unlimited,SBD,F,
Girls,75.07,10,Bethany McGuire,College Station A&M Cons,73.94,124.74,65.77,129.27,319.78,Unlimited,SBD,F,
Girls,75.07,11,Genesis Peel,College Station A&M Cons,72.48,97.52,74.84,142.88,315.25,Unlimited,SBD,F,
Girls,75.07,DQ,Sharai Rosas,Granbury,71.49,136.08,65.77,,,Unlimited,SBD,F,
Girls,75.07,DQ,Kacy Sledge,College Station,74.84,,,,,Unlimited,SBD,F,
Girls,82.33,1,Aniya Taylor,College Station,79.47,188.24,108.86,163.29,460.4,Unlimited,SBD,F,
Girls,82.33,2,Estrella Diaz,Granbury,80.65,197.31,104.33,158.76,460.4,Unlimited,SBD,F,
Girls,82.33,3,Olivia Montoya,Kyle Lehman,79.38,183.7,86.18,149.69,419.57,Unlimited,SBD,F,
Girls,82.33,4,Isabella Caro,Burleson Centennial,81.01,172.37,86.18,138.35,396.89,Unlimited,SBD,F,
Girls,82.33,5,Aleyna Castor,Lake Belton,75.21,142.88,88.45,154.22,385.55,Unlimited,SBD,F,
Girls,82.33,6,Mia Ndika,Pflugerville Hendrickson,80.56,161.03,70.31,154.22,385.55,Unlimited,SBD,F,
Girls,82.33,7,Renee McKnight,Lockhart,80.92,145.15,90.72,149.69,385.55,Unlimited,SBD,F,
Girls,82.33,8,Litzy Camacho,Georgetown,80.2,161.03,68.04,133.81,362.87,Unlimited,SBD,F,
Girls,82.33,9,Arianna Galindo,Burleson Centennial,80.47,140.61,83.91,136.08,360.61,Unlimited,SBD,F,
Girls,82.33,DQ,Sarah Wilbourn,Cleburne,81.56,145.15,83.91,,,Unlimited,SBD,F,
Girls,82.33,DQ,Madilyn Myrick,Buda Hays,77.75,,,,,Unlimited,SBD,F,
Girls,82.33,DQ,Ashley Harris,College Station,76.93,,,,,Unlimited,SBD,F,
Girls,90.04,1,Maddi Valles,Joshua,88,183.7,106.59,167.83,458.13,Unlimited,SBD,F,
Girls,90.04,2,Jayla Lisenbe,Lake Belton,88.36,174.63,102.06,154.22,430.91,Unlimited,SBD,F,
Girls,90.04,3,Jordyn January,Pflugerville Hendrickson,85.91,170.1,86.18,161.03,417.3,Unlimited,SBD,F,
Girls,90.04,4,Alyna Monreal-Cancino,Bastrop Cedar Creek,86.09,165.56,68.04,163.29,396.89,Unlimited,SBD,F,
Girls,90.04,5,Kynleigh Hawkins,Cleburne,88.27,151.95,95.25,115.67,362.87,Unlimited,SBD,F,
Girls,90.04,6,Spencer Waggoner,Pflugerville Hendrickson,84.64,133.81,86.18,138.35,358.34,Unlimited,SBD,F,
Girls,90.04,7,Aralina Acosta,Lake Belton,86.45,140.61,79.38,131.54,351.53,Unlimited,SBD,F,
Girls,90.04,8,Avery Park,Lake Belton,86.64,142.88,74.84,131.54,349.27,Unlimited,SBD,F,
Girls,90.04,9,Jolynn Moronta,College Station A&M Cons,88.27,131.54,92.99,115.67,340.19,Unlimited,SBD,F,
Girls,90.04,10,Kirsten Bonds,College Station A&M Cons,88.45,95.25,61.23,129.27,285.76,Unlimited,SBD,F,
Girls,90.04,DQ,Claire Payne,Pflugerville Hendrickson,86.64,115.67,,,,Unlimited,SBD,F,
Girls,90.04,DQ,Karma James,Cleburne,88.36,,,,,Unlimited,SBD,F,
Girls,100.02,1,J Miracle Sandle,College Station,97.07,167.83,111.13,145.15,424.11,Unlimited,SBD,F,
Girls,100.02,2,Elena Guevara,Kyle Lehman,90.17,161.03,81.65,145.15,387.82,Unlimited,SBD,F,
Girls,100.02,3,Savannah Alvarado,College Station A&M Cons,94.17,151.95,102.06,131.54,385.55,Unlimited,SBD,F,
Girls,100.02,4,Marisol Sanchez,Georgetown East View,98.97,151.95,72.57,145.15,369.68,Unlimited,SBD,F,
Girls,100.02,5,Sienna Kornrumph,College Station,95.07,142.88,72.57,138.35,353.8,Unlimited,SBD,F,
Girls,100.02,6,Maia Keen,Lake Belton,94.53,133.81,74.84,124.74,333.39,Unlimited,SBD,F,
Girls,100.02,7,Lorelai Scallorn,Lake Belton,90.45,124.74,79.38,115.67,319.78,Unlimited,SBD,F,
Girls,100.02,8,Kaylin Hack,College Station A&M Cons,95.16,115.67,70.31,90.72,276.69,Unlimited,SBD,F,
Girls,100.02,DQ,Page Carlton,Georgetown East View,99.79,,,,,Unlimited,SBD,F,
Girls,100.02,DQ,Leilany Sanchez,Cleburne,99.79,,,,,Unlimited,SBD,F,
Girls,100.02,DQ,Chloe Adams,Bastrop Cedar Creek,99.16,136.08,83.91,,,Unlimited,SBD,F,
Girls,100.02,DQ,Paisley Gaither-Lybrand,Burleson Centennial,92.35,136.08,,,,Unlimited,SBD,F,
Girls,110,1,Kathryn Goodner,Granbury,107.23,156.49,108.86,161.03,426.38,Unlimited,SBD,F,
Girls,110,2,Emma Moore,College Station,105.87,161.03,111.13,151.95,424.11,Unlimited,SBD,F,
Girls,110,3,Katya Veazey,Austin Anderson,107.32,136.08,83.91,142.88,362.87,Unlimited,SBD,F,
Girls,110,4,Baylie Anderson,Lake Belton,100.24,86.18,47.63,111.13,244.94,Unlimited,SBD,F,
Girls,110,5,Karla Cruz,Pflugerville Weiss,100.88,88.45,43.09,90.72,222.26,Unlimited,SBD,F,
Girls,110+,1,Breanna Ihrig,College Station,110.95,158.76,88.45,156.49,403.7,Unlimited,SBD,F,
Girls,110+,2,Leah Ovalle,Lockhart,136.53,167.83,90.72,145.15,403.7,Unlimited,SBD,F,
Girls,110+,3,Rosita Madrid,Cleburne,119.2,156.49,86.18,124.74,367.41,Unlimited,SBD,F,
Girls,110+,4,Maddie Coston,Pflugerville Weiss,113.49,124.74,72.57,120.2,317.51,Unlimited,SBD,F,
Girls,110+,5,Isalei Simpson,Lake Belton,141.52,122.47,68.04,115.67,306.17,Unlimited,SBD,F,
Girls,110+,6,Angelina Fernandez,Cleburne,135.08,106.59,72.57,97.52,276.69,Unlimited,SBD,F,
Girls,110+,7,Alessandra Zuniga,Kyle Lehman,157.76,70.31,65.77,90.72,226.8,Unlimited,SBD,F,
Girls,110+,DQ,Isabella Juarez,Cleburne,110.22,,,,,Unlimited,SBD,F,
Girls,110+,DQ,Sidney Rosenthal,Lake Belton,110.22,,,,,Unlimited,SBD,F,
