Division,WeightClassKg,Place,Name,Team,BodyweightKg,Best3SquatKg,Best3BenchKg,Best3DeadliftKg,TotalKg,Equipment,Event,Sex,BirthDate
Girls,44.23,1,Fabiola Hernandez,Edcouch-Elsa,43.91,120.2,47.63,102.06,269.89,Unlimited,SBD,F,
Girls,44.23,2,Alejandra Espinoza,Pharr Valley View,43.77,86.18,31.75,83.91,201.85,Unlimited,SBD,F,
Girls,44.23,3,Leilah Cabrera,Donna,39.46,70.31,31.75,74.84,176.9,Unlimited,SBD,F,
Girls,44.23,DQ,Madison Ramirez,Weslaco East,42.5,120.2,,,,Unlimited,SBD,F,
Girls,44.23,DQ,Jazlene Rios,Edcouch-Elsa,43,92.99,,,,Unlimited,SBD,F,
Girls,47.85,1,Lucy Reyna,Mission Veterans Memorial,47.85,111.13,52.16,115.67,278.96,Unlimited,SBD,F,
Girls,47.85,2,Aylin Resendez,Rio Grande City Grulla,47.85,117.93,47.63,108.86,274.42,Unlimited,SBD,F,
Girls,47.85,3,Layla Flores,Rio Grande City Grulla,47.85,102.06,52.16,120.2,274.42,Unlimited,SBD,F,
Girls,47.85,4,Addyson Enriquez,PSJA,46.72,90.72,38.56,108.86,238.14,Unlimited,SBD,F,
Girls,47.85,5,Angela Cerda,Rio Grande City Grulla,47.85,102.06,43.09,86.18,231.33,Unlimited,SBD,F,
Girls,47.85,6,Jezelle Soliz,Edcouch-Elsa,47.26,83.91,47.63,97.52,229.06,Unlimited,SBD,F,
Girls,47.85,7,Aumnie Garcia,Edcouch-Elsa,47.58,81.65,43.09,99.79,224.53,Unlimited,SBD,F,
Girls,47.85,8,Samantha Sanchez,La Joya,45.68,79.38,31.75,88.45,199.58,Unlimited,SBD,F,
Girls,47.85,9,Lilliana Rodriguez-Rendon,La Joya Palmview,46.58,79.38,34.02,72.57,185.97,Unlimited,SBD,F,
Girls,47.85,10,Yadira Mejia,La Joya,46.81,65.77,27.22,90.72,183.7,Unlimited,SBD,F,
Girls,51.94,1,Heaven Sekula,Edcouch-Elsa,51.8,102.06,61.23,133.81,297.1,Unlimited,SBD,F,
Girls,51.94,2,Cassandra Figueroa,Edcouch-Elsa,51.85,124.74,54.43,102.06,281.23,Unlimited,SBD,F,
Girls,51.94,3,Baillynn Belmarez,Donna,51.44,120.2,47.63,106.59,274.42,Unlimited,SBD,F,
Girls,51.94,4,Melanie Olvera,Mission Veterans Memorial,50.62,102.06,47.63,122.47,272.16,Unlimited,SBD,F,
Girls,51.94,5,Audry Hinojosa,Edcouch-Elsa,51.62,99.79,54.43,113.4,267.62,Unlimited,SBD,F,
Girls,51.94,6,Keyana Garza,La Villa,51.75,92.99,54.43,108.86,256.28,Unlimited,SBD,F,
Girls,51.94,7,Ashley Ramirez,La Joya Juarez-Lincoln,50.12,90.72,49.9,95.25,235.87,Unlimited,SBD,F,
Girls,51.94,8,Karla Vera,La Joya,51.48,70.31,40.82,108.86,219.99,Unlimited,SBD,F,
Girls,51.94,9,Samantha Herrera,Edinburg Idea College Prep,51.94,102.06,31.75,83.91,217.72,Unlimited,SBD,F,
Girls,51.94,DQ,Soley Vela,Mission Veterans Memorial,51.26,97.52,,,,Unlimited,SBD,F,
Girls,51.94,DQ,Audrey Diaz,Edcouch-Elsa,51.85,90.72,36.29,92.99,,Unlimited,SBD,F,
Girls,56.02,1,Denise Torres,Donna,56.02,127.01,72.57,117.93,317.51,Unlimited,SBD,F,
Girls,56.02,2,Bryana Izaguirre,La Joya Juarez-Lincoln,52.44,129.27,63.5,113.4,306.17,Unlimited,SBD,F,
Girls,56.02,3,Alisson Hernandez,Mission Veterans Memorial,56.02,113.4,52.16,111.13,276.69,Unlimited,SBD,F,
Girls,56.02,4,Karyme Gutierrez,Mission Veterans Memorial,53.43,115.67,52.16,99.79,267.62,Unlimited,SBD,F,
Girls,56.02,5,Keilyn Martinez,Donna,55.7,104.33,63.5,95.25,263.08,Unlimited,SBD,F,
Girls,56.02,6,Alexy Gonzalez,Edinburg Idea College Prep,53.25,99.79,36.29,88.45,224.53,Unlimited,SBD,F,
Girls,56.02,7,Samantha Solis,La Joya,54.61,74.84,49.9,99.79,224.53,Unlimited,SBD,F,
Girls,56.02,8,Avry Rodriguez,La Villa,55.79,86.18,45.36,88.45,219.99,Unlimited,SBD,F,
Girls,56.02,9,Arianeth Ruiz,PSJA,55.97,86.18,36.29,86.18,208.65,Unlimited,SBD,F,
Girls,56.02,DQ,Ashley Rodriguez,Monte Alto,55.11,,,,,Unlimited,SBD,F,
Girls,56.02,DQ,Alyssa Garza,Edcouch-Elsa,55.7,,,,,Unlimited,SBD,F,
Girls,56.02,DQ,Aralynn Molina,Rio Grande City Grulla,53.21,102.06,47.63,102.06,,Unlimited,SBD,F,
Girls,60.1,1,Melanie Portillo,Rio Grande City,59.06,131.54,65.77,138.35,335.66,Unlimited,SBD,F,
Girls,60.1,2,Emilie Salazar,Weslaco East,59.1,136.08,56.7,115.67,308.44,Unlimited,SBD,F,
Girls,60.1,3,Jasmine Marquez,La Villa,58.33,124.74,52.16,117.93,294.84,Unlimited,SBD,F,
Girls,60.1,4,Leselle Tovar,Mission Veterans Memorial,59.06,113.4,49.9,124.74,288.03,Unlimited,SBD,F,
Girls,60.1,5,Alisson Perez,Edcouch-Elsa,59.06,102.06,54.43,106.59,263.08,Unlimited,SBD,F,
Girls,60.1,6,Sarai Garcia,La Joya Palmview,59.28,104.33,47.63,111.13,263.08,Unlimited,SBD,F,
Girls,60.1,7,Dulce Lopez,Pharr Valley View,58.01,99.79,43.09,106.59,249.48,Unlimited,SBD,F,
Girls,60.1,8,Abigail Salinas,La Joya,59.15,99.79,31.75,102.06,233.6,Unlimited,SBD,F,
Girls,60.1,9,Alessandra Benitez,Rio Grande City Grulla,57.33,70.31,34.02,72.57,176.9,Unlimited,SBD,F,
Girls,67.36,1,Isla Rojas,Edinburg Idea College Prep,66.68,179.17,99.79,147.42,426.38,Unlimited,SBD,F,
Girls,67.36,2,Maelyn Trevino,PSJA,65.91,129.27,61.23,142.88,333.39,Unlimited,SBD,F,
Girls,67.36,3,Ivette Gonzalez,Weslaco East,66.86,136.08,70.31,122.47,328.85,Unlimited,SBD,F,
Girls,67.36,4,Andrea Perrett,Donna,60.83,136.08,70.31,113.4,319.78,Unlimited,SBD,F,
Girls,67.36,5,Mya Garza,PSJA,66.13,113.4,56.7,113.4,283.5,Unlimited,SBD,F,
Girls,67.36,6,Lybia Garcia,Mission Veterans Memorial,60.87,106.59,56.7,113.4,276.69,Unlimited,SBD,F,
Girls,67.36,7,Emma Padron,PSJA,66.18,111.13,45.36,120.2,276.69,Unlimited,SBD,F,
Girls,67.36,8,Krista Cortina,Mission Veterans Memorial,67.13,113.4,58.97,102.06,274.42,Unlimited,SBD,F,
Girls,67.36,9,Scott Brianna,Edcouch-Elsa,65.59,104.33,47.63,113.4,265.35,Unlimited,SBD,F,
Girls,67.36,10,Jozelyn Palafox,La Joya Palmview,61.42,104.33,40.82,117.93,263.08,Unlimited,SBD,F,
Girls,67.36,11,Arendy Barron,La Joya Palmview,66.45,86.18,49.9,90.72,226.8,Unlimited,SBD,F,
Girls,67.36,12,Alexa Padron,La Joya,62.55,74.84,27.22,102.06,204.12,Unlimited,SBD,F,
Girls,67.36,13,Yesenia Vela,La Joya Palmview,62.55,77.11,27.22,81.65,185.97,Unlimited,SBD,F,
Girls,67.36,DQ,Crystal Molina,Monte Alto,62.6,86.18,63.5,,,Unlimited,SBD,F,
Girls,75.07,1,Karina Gomez,Edinburg Idea College Prep,72.8,136.08,70.31,122.47,328.85,Unlimited,SBD,F,
Girls,75.07,2,Mariana Benavides,Pharr Valley View,69.58,145.15,63.5,115.67,324.32,Unlimited,SBD,F,
Girls,75.07,3,Angie Garza,Weslaco East,71.71,117.93,63.5,122.47,303.91,Unlimited,SBD,F,
Girls,75.07,4,Marissa Cantu,La Joya Juarez-Lincoln,74.57,111.13,61.23,111.13,283.5,Unlimited,SBD,F,
Girls,75.07,5,Dulce Mata,La Joya,69.99,104.33,45.36,129.27,278.96,Unlimited,SBD,F,
Girls,75.07,6,Sofia Quintanilla,La Joya Palmview,74.25,102.06,43.09,120.2,265.35,Unlimited,SBD,F,
Girls,75.07,DQ,Alexia Leal,La Joya Palmview,73.12,,,,,Unlimited,SBD,F,
Girls,75.07,DQ,Norma Espericueta,Donna,74.3,,,,,Unlimited,SBD,F,
Girls,75.07,DQ,Natalie Arredondo,Weslaco East,71.76,,,,,Unlimited,SBD,F,
Girls,75.07,DQ,Abrianna Maldonado,PSJA,69.22,,,,,Unlimited,SBD,F,
Girls,75.07,DQ,Yaletzy Perales,Rio Grande City Grulla,70.03,,,,,Unlimited,SBD,F,
Girls,75.07,DQ,Jocelyn Vela,Mission Veterans Memorial,71.08,127.01,,,,Unlimited,SBD,F,
Girls,82.33,1,Stacy Acosta,Edinburg Idea College Prep,77.66,174.63,83.91,133.81,392.36,Unlimited,SBD,F,
Girls,82.33,2,Lucero Hernandez,Edcouch-Elsa,81.33,120.2,54.43,133.81,308.44,Unlimited,SBD,F,
Girls,82.33,3,Luz Medina,La Joya,77.02,99.79,49.9,136.08,285.76,Unlimited,SBD,F,
Girls,82.33,4,Valeria Chapa,La Joya,79.74,106.59,47.63,113.4,267.62,Unlimited,SBD,F,
Girls,82.33,5,Karen Bazan,Edcouch-Elsa,76.29,99.79,45.36,108.86,254.01,Unlimited,SBD,F,
Girls,82.33,DQ,Kasey Ibarra,Mission Veterans Memorial,75.11,111.13,,,,Unlimited,SBD,F,
Girls,82.33,DQ,Clarissa Pena,PSJA,79.7,124.74,,,,Unlimited,SBD,F,
Girls,90.04,1,Sophia Dominguez,Mission Veterans Memorial,89.49,183.7,124.74,163.29,471.74,Unlimited,SBD,F,
Girls,90.04,2,Sheyla Garcia,PSJA,88.31,145.15,83.91,149.69,378.75,Unlimited,SBD,F,
Girls,90.04,3,Yubia De Los Santos,Edcouch-Elsa,85.14,165.56,61.23,136.08,362.87,Unlimited,SBD,F,
Girls,90.04,4,Zoey Becerra,Rio Grande City Grulla,84.91,156.49,58.97,129.27,344.73,Unlimited,SBD,F,
Girls,90.04,5,Yoanna Sanchez,La Joya Palmview,90.04,111.13,45.36,133.81,290.3,Unlimited,SBD,F,
Girls,90.04,DQ,Leah Diaz,Donna,85.46,79.38,,,,Unlimited,SBD,F,
Girls,90.04,DQ,Brianna Cuellar,Donna,86.27,,,,,Unlimited,SBD,F,
Girls,90.04,DQ,Aliyah Marroquin,Edcouch-Elsa,89.45,,,,,Unlimited,SBD,F,
Girls,100.02,1,Kylie Trevino,Rio Grande City Grulla,97.43,240.4,104.33,188.24,532.97,Unlimited,SBD,F,
Girls,100.02,2,Dayana Hernandez,Weslaco East,96.34,190.51,117.93,154.22,462.66,Unlimited,SBD,F,
Girls,100.02,3,Dina Cavazos,Monte Alto,90.36,170.1,90.72,149.69,410.5,Unlimited,SBD,F,
Girls,100.02,4,Ave Dominguez,PSJA,96.75,142.88,70.31,113.4,326.59,Unlimited,SBD,F,
Girls,100.02,5,Reyna Montanez,Pharr Valley View,99.79,122.47,72.57,106.59,301.64,Unlimited,SBD,F,
Girls,100.02,6,Selena Villarreal,Pharr Valley View,94.26,97.52,54.43,122.47,274.42,Unlimited,SBD,F,
Girls,100.02,DQ,Lauren Palacios,Edcouch-Elsa,96.34,,,,,Unlimited,SBD,F,
Girls,110,1,Jordin Vasquez,Mission Veterans Memorial,101.83,183.7,120.2,163.29,467.2,Unlimited,SBD,F,
Girls,110,2,Mia Hurtado,La Joya Juarez-Lincoln,107.82,156.49,83.91,106.59,347,Unlimited,SBD,F,
Girls,110,3,Grecia Nino,Edinburg Idea College Prep,101.24,142.88,72.57,124.74,340.19,Unlimited,SBD,F,
Girls,110,4,Sarah Soliz,La Joya Palmview,102.29,142.88,54.43,136.08,333.39,Unlimited,SBD,F,
Girls,110,5,Dulce Cavazos,PSJA,101.2,147.42,61.23,108.86,317.51,Unlimited,SBD,F,
Girls,110,6,Melissa Diaz,La Joya,108.86,102.06,43.09,113.4,258.55,Unlimited,SBD,F,
Girls,110,7,Yulianna Carbajal,La Joya,104.92,90.72,38.56,108.86,238.14,Unlimited,SBD,F,
Girls,110,DQ,Madison Herrera,Donna,108.18,,,,,Unlimited,SBD,F,
Girls,110,DQ,Kayleen Garcia,Weslaco East,102.56,201.85,,,,Unlimited,SBD,F,
Girls,110+,1,Maya Magallanes,Rio Grande City,124.38,215.46,156.49,179.17,551.11,Unlimited,SBD,F,
Girls,110+,2,Perla Ortiz,Rio Grande City,117.25,190.51,90.72,136.08,417.3,Unlimited,SBD,F,
